https://www.nilt.com, , , 
https://www.Topsoe.com, 2018 Sustainability, +45 4527 2000, nr@context
https://www.fossanalytics.com/en# , 3400 Hilleroed, +45 7010 3370, nr@seenError
http://www.spectroinlets.com/, 2200 København, , sales@spectroinlets.com
https://www.forcetechnology.com/da, 2605 Brøndby, +45 43 25 00 00, 
https://www.Teknologisk.dk, 2630 Taastrup, +45 7220 2001, st@teknologisk.dk
https://www.Weibel.dk/ , , , 
https://www.cobham.com/communications-and-connectivity/satcom/locations/lyngby/ , 2800 Kgs, +45 3955 8800, 
https://infinitypv.com/ , 1902 Synes, , info@infinityPV.com
https://ewii.com/privat , , +45 70 50 50 50, ewii@ewii.com
https://www.festo.com/cms/da_dk/, 2610 Rødovre, , sales_dk@festo.com
https://www.Radiometer.dk/ , 2019 Radiometer, +45 3827 3827 , privacy@radiometer.dk
https://www.shute.dk, 3490 Kvistgård, +45 40429234 , info@shute.dk
https://www.Aquaporin.dk/, 2019 Convention, , cdl@aquaporin.com
https://www.altadevices.com/ , , , 
